da0c8f63-95f4-45ad-b01d-eb349481d88e
98db2216-3e9f-4a27-9017-8a70e32432b7
1b0828de-cd81-4717-9f2b-a0bd43a3e836
4491792d-4cb9-4557-9405-48f08fdbadf4
757ce968-887b-48d6-a4ab-e541baa672ce
459ce0cd-f026-4179-a984-27700e86c0d3
c70a5173-3b34-4199-86d5-9dc0b30aea32
59bf7314-c503-4323-9ab6-2bab6f4cf5bc
cf1fd1a6-2c4b-405b-8325-8ba65bd7a939
d28d9ae1-ccaf-4759-9009-54a8d70602c1
5b0415f3-1ed9-464c-b73a-f39421ff449a
e184546a-f603-40a5-aeb7-8486b031a75c
42daae38-9b4e-4a18-af85-639602e5fba1
ccf5275d-a706-478d-8c59-bcbca86e29b4
272900bb-be61-4b62-bc60-b859bc3c0a63
f7708dfe-eb6c-4cd2-a174-bbd052fe7ea3
9d13bdd2-acad-4db6-9588-aa8c5f9ec4fb
3c342026-4f49-4fd3-a63d-e7614fd30e6a
4ec03bf6-0b19-4b07-bbb5-a6011f4a7bf7
37850b49-76f3-42fe-8f4c-774eb36f08f3
eaf0d574-dabe-467d-b46f-87030f60dafa
407a020d-aeca-4b09-bb03-540b73a618f1
e30ed8aa-9c10-422c-b31f-dd9f3b10f915
d3bd3043-dbd6-499f-b9a3-cb6082a496e6
03d02fcd-53bb-4a8f-a38f-63ff6fbf31e6
7c53bb00-456d-468a-94da-3e39d94399d4
757bcdbe-4dc5-42e8-bcb5-18b4a105f26b
8bf38dbf-34f0-41f0-9def-7986a217f674
ddec18c7-2e56-48fd-b72e-565baa9370b5
0390e14f-208c-4e85-81c5-eceaabdbb6bb
71b743c0-1e9e-48e1-988e-fb55a9c7b049
0532e01a-a3f5-4134-a9a0-30701777a20a
2767fa1d-81a5-42b4-9e8c-411601a9c718
8eede534-195c-49ce-bb3c-9f71d5abdb51
04d96daf-c58e-44b7-8b53-598583d733d6
896377a7-2adc-45c2-afba-6780f4e74c5d
caa357d6-2d6b-4286-9170-5d8b42816b6f
726bc865-6def-4b9f-9b86-3a3768643233
48cb512f-03ca-4b18-a13b-e7b838cb2139
339dcfa1-dc0a-4549-b72b-57752534bae3
068178b3-bce3-4a74-a27e-ead0d3241998
4e5a6b29-443d-4b9a-b302-ff7e0b882d50
1c39b4d9-4840-4194-aab3-a1c820b4725a
cb73a25e-df22-48bd-883b-d7a3dc9206ac
841a697d-4a8d-400d-8bac-2c61f4f9e2e9
13fea812-8873-4d62-9eac-c817e7e875be
61c17b31-3b0c-4f6f-8c47-d941e617ff09
ad8c532d-bd62-48eb-8c2c-0bc4201834ae
d61e48de-fbbb-4fd4-ab73-1e5fceb0e837
7a66dfee-ec34-4e41-be94-13234d3f42ff
